%YAML 1.1
%TAG !u! tag:unity3d.com,2011:
--- !u!29 &1
OcclusionCullingSettings:
  m_ObjectHideFlags: 0
  serializedVersion: 2
  m_OcclusionBakeSettings:
    smallestOccluder: 5
    smallestHole: 0.25
    backfaceThreshold: 100
  m_SceneGUID: 00000000000000000000000000000000
  m_OcclusionCullingData: {fileID: 0}
--- !u!104 &2
RenderSettings:
  m_ObjectHideFlags: 0
  serializedVersion: 8
  m_Fog: 0
  m_FogColor: {r: 0.5, g: 0.5, b: 0.5, a: 1}
  m_FogMode: 3
  m_FogDensity: 0.01
  m_LinearFogStart: 0
  m_LinearFogEnd: 300
  m_AmbientSkyColor: {r: 0.2, g: 0.2, b: 0.2, a: 1}
  m_AmbientEquatorColor: {r: 0.2, g: 0.2, b: 0.2, a: 1}
  m_AmbientGroundColor: {r: 0.2, g: 0.2, b: 0.2, a: 1}
  m_AmbientIntensity: 1
  m_AmbientMode: 3
  m_SubtractiveShadowColor: {r: 0.42, g: 0.478, b: 0.627, a: 1}
  m_SkyboxMaterial: {fileID: 0}
  m_HaloStrength: 0.5
  m_FlareStrength: 1
  m_FlareFadeSpeed: 3
  m_HaloTexture: {fileID: 0}
  m_SpotCookie: {fileID: 10001, guid: 0000000000000000e000000000000000, type: 0}
  m_DefaultReflectionMode: 0
  m_DefaultReflectionResolution: 128
  m_ReflectionBounces: 1
  m_ReflectionIntensity: 1
  m_CustomReflection: {fileID: 0}
  m_Sun: {fileID: 0}
  m_IndirectSpecularColor: {r: 0, g: 0, b: 0, a: 1}
--- !u!157 &4
LightmapSettings:
  m_ObjectHideFlags: 0
  serializedVersion: 11
  m_GIWorkflowMode: 1
  m_GISettings:
    serializedVersion: 2
    m_BounceScale: 1
    m_IndirectOutputScale: 1
    m_AlbedoBoost: 1
    m_TemporalCoherenceThreshold: 1
    m_EnvironmentLightingMode: 0
    m_EnableBakedLightmaps: 1
    m_EnableRealtimeLightmaps: 0
  m_LightmapEditorSettings:
    serializedVersion: 9
    m_Resolution: 1
    m_BakeResolution: 50
    m_TextureWidth: 1024
    m_TextureHeight: 1024
    m_AO: 0
    m_AOMaxDistance: 1
    m_CompAOExponent: 0
    m_CompAOExponentDirect: 0
    m_Padding: 2
    m_LightmapParameters: {fileID: 0}
    m_LightmapsBakeMode: 1
    m_TextureCompression: 0
    m_FinalGather: 0
    m_FinalGatherFiltering: 1
    m_FinalGatherRayCount: 1024
    m_ReflectionCompression: 2
    m_MixedBakeMode: 1
    m_BakeBackend: 0
    m_PVRSampling: 1
    m_PVRDirectSampleCount: 32
    m_PVRSampleCount: 500
    m_PVRBounces: 2
    m_PVRFiltering: 0
    m_PVRFilteringMode: 1
    m_PVRCulling: 1
    m_PVRFilteringGaussRadiusDirect: 1
    m_PVRFilteringGaussRadiusIndirect: 5
    m_PVRFilteringGaussRadiusAO: 2
    m_PVRFilteringAtrousColorSigma: 1
    m_PVRFilteringAtrousNormalSigma: 1
    m_PVRFilteringAtrousPositionSigma: 1
  m_LightingDataAsset: {fileID: 0}
  m_UseShadowmask: 0
--- !u!196 &5
NavMeshSettings:
  serializedVersion: 2
  m_ObjectHideFlags: 0
  m_BuildSettings:
    serializedVersion: 2
    agentTypeID: 0
    agentRadius: 0.5
    agentHeight: 2
    agentSlope: 45
    agentClimb: 0.4
    ledgeDropHeight: 0
    maxJumpAcrossDistance: 0
    minRegionArea: 2
    manualCellSize: 0
    cellSize: 0.16666666
    manualTileSize: 0
    tileSize: 256
    accuratePlacement: 0
  m_NavMeshData: {fileID: 0}
--- !u!1 &39681011
GameObject:
  m_ObjectHideFlags: 0
  m_PrefabParentObject: {fileID: 100022, guid: d16cb16092db9e34f865d30820b9a72f, type: 3}
  m_PrefabInternal: {fileID: 1411121059}
  serializedVersion: 5
  m_Component:
  - component: {fileID: 39681012}
  - component: {fileID: 39681013}
  m_Layer: 0
  m_Name: FaceRigged
  m_TagString: Untagged
  m_Icon: {fileID: 0}
  m_NavMeshLayer: 0
  m_StaticEditorFlags: 0
  m_IsActive: 1
--- !u!4 &39681012
Transform:
  m_ObjectHideFlags: 0
  m_PrefabParentObject: {fileID: 400022, guid: d16cb16092db9e34f865d30820b9a72f, type: 3}
  m_PrefabInternal: {fileID: 1411121059}
  m_GameObject: {fileID: 39681011}
  m_LocalRotation: {x: 0, y: 1, z: 0, w: -0.00000004371139}
  m_LocalPosition: {x: 0, y: 1, z: 2}
  m_LocalScale: {x: 1, y: 1, z: 1}
  m_Children:
  - {fileID: 1606533086}
  - {fileID: 416485004}
  - {fileID: 418616398}
  - {fileID: 2012092987}
  - {fileID: 2067180440}
  m_Father: {fileID: 0}
  m_RootOrder: 2
  m_LocalEulerAnglesHint: {x: 0, y: 0, z: 0}
--- !u!114 &39681013
MonoBehaviour:
  m_ObjectHideFlags: 0
  m_PrefabParentObject: {fileID: 0}
  m_PrefabInternal: {fileID: 0}
  m_GameObject: {fileID: 39681011}
  m_Enabled: 1
  m_EditorHideFlags: 0
  m_Script: {fileID: 11500000, guid: 3ec5e8623a4bd1b438a28444a48e0c14, type: 3}
  m_Name: 
  m_EditorClassIdentifier: 
  HeadTransform: {fileID: 39681012}
  mirroredHeadMovement: 1
  foregroundCamera: {fileID: 196037494}
  verticalOffset: -0.15
  modelScaleFactor: 0.3
  smoothFactor: 20
  UpperLipLeft: {fileID: 469506415}
  UpperLipLeftAxis: 1
  UpperLipLeftUp: 295
  UpperLipRight: {fileID: 1273855617}
  UpperLipRightAxis: 1
  UpperLipRightUp: 295
  Jaw: {fileID: 1402984696}
  JawAxis: 1
  JawDown: 290
  LipLeft: {fileID: 469506415}
  LipLeftAxis: 2
  LipLeftStretched: 339
  LipRight: {fileID: 1273855617}
  LipRightAxis: 2
  LipRightStretched: 28
  EyebrowLeft: {fileID: 2052867795}
  EyebrowLeftAxis: 1
  EyebrowLeftLowered: 273
  EyebrowRight: {fileID: 154168210}
  EyebrowRightAxis: 1
  EyebrowRightLowered: 273
  LipCornerLeft: {fileID: 469506415}
  LipCornerLeftAxis: 0
  LipCornerLeftDepressed: 348
  LipCornerRight: {fileID: 1273855617}
  LipCornerRightAxis: 0
  LipCornerRightDepressed: 368
  UpperEyelidLeft: {fileID: 0}
  UpperEyelidLeftAxis: 0
  UpperEyelidLeftLowered: 0
  UpperEyelidRight: {fileID: 0}
  UpperEyelidRightAxis: 0
  UpperEyelidRightLowered: 0
  LowerEyelidLeft: {fileID: 0}
  LowerEyelidLeftAxis: 0
  LowerEyelidLeftRaised: 0
  LowerEyelidRight: {fileID: 0}
  LowerEyelidRightAxis: 0
  LowerEyelidRightRaised: 0
--- !u!1 &79087019
GameObject:
  m_ObjectHideFlags: 0
  m_PrefabParentObject: {fileID: 100026, guid: d16cb16092db9e34f865d30820b9a72f, type: 3}
  m_PrefabInternal: {fileID: 1411121059}
  serializedVersion: 5
  m_Component:
  - component: {fileID: 79087020}
  m_Layer: 0
  m_Name: right_cheek
  m_TagString: Untagged
  m_Icon: {fileID: 0}
  m_NavMeshLayer: 0
  m_StaticEditorFlags: 0
  m_IsActive: 1
--- !u!4 &79087020
Transform:
  m_ObjectHideFlags: 0
  m_PrefabParentObject: {fileID: 400026, guid: d16cb16092db9e34f865d30820b9a72f, type: 3}
  m_PrefabInternal: {fileID: 1411121059}
  m_GameObject: {fileID: 79087019}
  m_LocalRotation: {x: -0.20917745, y: -0.5851013, z: 0.2705544, w: 0.7353242}
  m_LocalPosition: {x: -0.38523516, y: 0.0009419808, z: 0.000991114}
  m_LocalScale: {x: 0.9991609, y: 0.94649935, z: 0.7562261}
  m_Children: []
  m_Father: {fileID: 216609041}
  m_RootOrder: 4
  m_LocalEulerAnglesHint: {x: 0, y: 0, z: 0}
--- !u!1 &130114209
GameObject:
  m_ObjectHideFlags: 0
  m_PrefabParentObject: {fileID: 100010, guid: d16cb16092db9e34f865d30820b9a72f, type: 3}
  m_PrefabInternal: {fileID: 1411121059}
  serializedVersion: 5
  m_Component:
  - component: {fileID: 1402984696}
  m_Layer: 0
  m_Name: jaw
  m_TagString: Untagged
  m_Icon: {fileID: 0}
  m_NavMeshLayer: 0
  m_StaticEditorFlags: 0
  m_IsActive: 1
--- !u!4 &154168210
Transform:
  m_ObjectHideFlags: 0
  m_PrefabParentObject: {fileID: 400028, guid: d16cb16092db9e34f865d30820b9a72f, type: 3}
  m_PrefabInternal: {fileID: 1411121059}
  m_GameObject: {fileID: 1052780219}
  m_LocalRotation: {x: -0.22450851, y: -0.58715296, z: 0.25426847, w: 0.7349795}
  m_LocalPosition: {x: -0.48788235, y: -0.0008585605, z: 0.006200091}
  m_LocalScale: {x: 0.9998933, y: 0.9942185, z: 0.6912338}
  m_Children: []
  m_Father: {fileID: 216609041}
  m_RootOrder: 5
  m_LocalEulerAnglesHint: {x: 0, y: 0, z: 0}
--- !u!1 &196037490
GameObject:
  m_ObjectHideFlags: 0
  m_PrefabParentObject: {fileID: 0}
  m_PrefabInternal: {fileID: 0}
  serializedVersion: 5
  m_Component:
  - component: {fileID: 196037495}
  - component: {fileID: 196037494}
  - component: {fileID: 196037493}
  - component: {fileID: 196037492}
  - component: {fileID: 196037491}
  m_Layer: 0
  m_Name: Main Camera
  m_TagString: MainCamera
  m_Icon: {fileID: 0}
  m_NavMeshLayer: 0
  m_StaticEditorFlags: 0
  m_IsActive: 1
--- !u!81 &196037491
AudioListener:
  m_ObjectHideFlags: 0
  m_PrefabParentObject: {fileID: 0}
  m_PrefabInternal: {fileID: 0}
  m_GameObject: {fileID: 196037490}
  m_Enabled: 1
--- !u!124 &196037492
Behaviour:
  m_ObjectHideFlags: 0
  m_PrefabParentObject: {fileID: 0}
  m_PrefabInternal: {fileID: 0}
  m_GameObject: {fileID: 196037490}
  m_Enabled: 1
--- !u!92 &196037493
Behaviour:
  m_ObjectHideFlags: 0
  m_PrefabParentObject: {fileID: 0}
  m_PrefabInternal: {fileID: 0}
  m_GameObject: {fileID: 196037490}
  m_Enabled: 1
--- !u!20 &196037494
Camera:
  m_ObjectHideFlags: 0
  m_PrefabParentObject: {fileID: 0}
  m_PrefabInternal: {fileID: 0}
  m_GameObject: {fileID: 196037490}
  m_Enabled: 1
  serializedVersion: 2
  m_ClearFlags: 3
  m_BackGroundColor: {r: 0.19215687, g: 0.3019608, b: 0.4745098, a: 0.019607844}
  m_NormalizedViewPortRect:
    serializedVersion: 2
    x: 0
    y: 0
    width: 1
    height: 1
  near clip plane: 0.3
  far clip plane: 1000
  field of view: 60
  orthographic: 0
  orthographic size: 100
  m_Depth: 0
  m_CullingMask:
    serializedVersion: 2
    m_Bits: 4294966527
  m_RenderingPath: -1
  m_TargetTexture: {fileID: 0}
  m_TargetDisplay: 0
  m_TargetEye: 3
  m_HDR: 0
  m_AllowMSAA: 1
  m_ForceIntoRT: 0
  m_OcclusionCulling: 1
  m_StereoConvergence: 10
  m_StereoSeparation: 0.022
  m_StereoMirrorMode: 0
--- !u!4 &196037495
Transform:
  m_ObjectHideFlags: 0
  m_PrefabParentObject: {fileID: 0}
  m_PrefabInternal: {fileID: 0}
  m_GameObject: {fileID: 196037490}
  m_LocalRotation: {x: 0, y: 0, z: 0, w: 1}
  m_LocalPosition: {x: 0, y: 1, z: 0}
  m_LocalScale: {x: 1, y: 1, z: 1}
  m_Children: []
  m_Father: {fileID: 0}
  m_RootOrder: 5
  m_LocalEulerAnglesHint: {x: 0, y: 0, z: 0}
--- !u!1 &216609040
GameObject:
  m_ObjectHideFlags: 0
  m_PrefabParentObject: {fileID: 100024, guid: d16cb16092db9e34f865d30820b9a72f, type: 3}
  m_PrefabInternal: {fileID: 1411121059}
  serializedVersion: 5
  m_Component:
  - component: {fileID: 216609041}
  m_Layer: 0
  m_Name: neck
  m_TagString: Untagged
  m_Icon: {fileID: 0}
  m_NavMeshLayer: 0
  m_StaticEditorFlags: 0
  m_IsActive: 1
--- !u!4 &216609041
Transform:
  m_ObjectHideFlags: 0
  m_PrefabParentObject: {fileID: 400024, guid: d16cb16092db9e34f865d30820b9a72f, type: 3}
  m_PrefabInternal: {fileID: 1411121059}
  m_GameObject: {fileID: 216609040}
  m_LocalRotation: {x: 0.99072087, y: 0.012691714, z: -0.1327287, w: -0.026347192}
  m_LocalPosition: {x: -0.10007419, y: 0.0000000070780515, z: 5e-16}
  m_LocalScale: {x: 0.99999976, y: 0.9999999, z: 1}
  m_Children:
  - {fileID: 1127319240}
  - {fileID: 291302503}
  - {fileID: 2052867795}
  - {fileID: 469506415}
  - {fileID: 79087020}
  - {fileID: 154168210}
  - {fileID: 1273855617}
  m_Father: {fileID: 1947688986}
  m_RootOrder: 1
  m_LocalEulerAnglesHint: {x: 0, y: 0, z: 0}
--- !u!1 &225904547
GameObject:
  m_ObjectHideFlags: 0
  m_PrefabParentObject: {fileID: 0}
  m_PrefabInternal: {fileID: 0}
  serializedVersion: 5
  m_Component:
  - component: {fileID: 225904550}
  - component: {fileID: 225904548}
  - component: {fileID: 225904549}
  m_Layer: 8
  m_Name: BackgroundImage
  m_TagString: Untagged
  m_Icon: {fileID: 0}
  m_NavMeshLayer: 0
  m_StaticEditorFlags: 0
  m_IsActive: 1
--- !u!131 &225904548
GUITexture:
  m_ObjectHideFlags: 0
  m_PrefabParentObject: {fileID: 0}
  m_PrefabInternal: {fileID: 0}
  m_GameObject: {fileID: 225904547}
  m_Enabled: 1
  m_Texture: {fileID: 0}
  m_Color: {r: 0.5, g: 0.5, b: 0.5, a: 0.5}
  m_PixelInset:
    serializedVersion: 2
    x: 0
    y: 0
    width: 0
    height: 0
  m_LeftBorder: 0
  m_RightBorder: 0
  m_TopBorder: 0
  m_BottomBorder: 0
--- !u!114 &225904549
MonoBehaviour:
  m_ObjectHideFlags: 0
  m_PrefabParentObject: {fileID: 0}
  m_PrefabInternal: {fileID: 0}
  m_GameObject: {fileID: 225904547}
  m_Enabled: 0
  m_EditorHideFlags: 0
  m_Script: {fileID: 11500000, guid: 78b5cd09b2fe6a74b822705cd59951f1, type: 3}
  m_Name: 
  m_EditorClassIdentifier: 
--- !u!4 &225904550
Transform:
  m_ObjectHideFlags: 0
  m_PrefabParentObject: {fileID: 0}
  m_PrefabInternal: {fileID: 0}
  m_GameObject: {fileID: 225904547}
  m_LocalRotation: {x: 0, y: 0, z: 0, w: 1}
  m_LocalPosition: {x: 0.5, y: 0.5, z: 0}
  m_LocalScale: {x: 1, y: -1, z: 1}
  m_Children: []
  m_Father: {fileID: 0}
  m_RootOrder: 0
  m_LocalEulerAnglesHint: {x: 0, y: 0, z: 0}
--- !u!1 &291302502
GameObject:
  m_ObjectHideFlags: 0
  m_PrefabParentObject: {fileID: 100016, guid: d16cb16092db9e34f865d30820b9a72f, type: 3}
  m_PrefabInternal: {fileID: 1411121059}
  serializedVersion: 5
  m_Component:
  - component: {fileID: 291302503}
  m_Layer: 0
  m_Name: left_cheek
  m_TagString: Untagged
  m_Icon: {fileID: 0}
  m_NavMeshLayer: 0
  m_StaticEditorFlags: 0
  m_IsActive: 1
--- !u!4 &291302503
Transform:
  m_ObjectHideFlags: 0
  m_PrefabParentObject: {fileID: 400016, guid: d16cb16092db9e34f865d30820b9a72f, type: 3}
  m_PrefabInternal: {fileID: 1411121059}
  m_GameObject: {fileID: 291302502}
  m_LocalRotation: {x: 0.1548866, y: -0.60365534, z: -0.22906512, w: 0.74775636}
  m_LocalPosition: {x: -0.38523516, y: 0.00094198715, z: 0.0009911017}
  m_LocalScale: {x: 0.99918264, y: 0.9927374, z: 0.6943825}
  m_Children: []
  m_Father: {fileID: 216609041}
  m_RootOrder: 1
  m_LocalEulerAnglesHint: {x: 0, y: 0, z: 0}
--- !u!1 &379480521
GameObject:
  m_ObjectHideFlags: 0
  m_PrefabParentObject: {fileID: 0}
  m_PrefabInternal: {fileID: 0}
  serializedVersion: 5
  m_Component:
  - component: {fileID: 379480524}
  - component: {fileID: 379480523}
  - component: {fileID: 379480522}
  - component: {fileID: 379480525}
  m_Layer: 0
  m_Name: KinectController
  m_TagString: Untagged
  m_Icon: {fileID: 0}
  m_NavMeshLayer: 0
  m_StaticEditorFlags: 0
  m_IsActive: 1
--- !u!114 &379480522
MonoBehaviour:
  m_ObjectHideFlags: 0
  m_PrefabParentObject: {fileID: 0}
  m_PrefabInternal: {fileID: 0}
  m_GameObject: {fileID: 379480521}
  m_Enabled: 1
  m_EditorHideFlags: 0
  m_Script: {fileID: 11500000, guid: 1eedf84d761a4dc4ba2ed284ddf51aa1, type: 3}
  m_Name: 
  m_EditorClassIdentifier: 
  playerIndex: 0
  getFaceModelData: 1
  displayFaceRect: 0
  faceTrackingTolerance: 0.5
  faceModelMesh: {fileID: 0}
  pauseModelMeshUpdates: 0
  texturedModelMesh: 1
  moveModelMesh: 0
  foregroundCamera: {fileID: 0}
  modelMeshScale: 1
  verticalMeshOffset: 0
  debugText: {fileID: 644230342}
--- !u!114 &379480523
MonoBehaviour:
  m_ObjectHideFlags: 0
  m_PrefabParentObject: {fileID: 0}
  m_PrefabInternal: {fileID: 0}
  m_GameObject: {fileID: 379480521}
  m_Enabled: 1
  m_EditorHideFlags: 0
  m_Script: {fileID: 11500000, guid: 6b531f336dfee5f438f94ed501caefc7, type: 3}
  m_Name: 
  m_EditorClassIdentifier: 
  sensorHeight: 1
  sensorAngle: 0
  autoHeightAngle: 0
  computeUserMap: 1
  computeColorMap: 1
  computeInfraredMap: 0
  displayUserMap: 0
  displayColorMap: 0
  displaySkeletonLines: 0
  DisplayMapsWidthPercent: 30
  useMultiSourceReader: 0
  minUserDistance: 0.5
  maxUserDistance: 0
  maxLeftRightDistance: 0
  maxTrackedUsers: 6
  showTrackedUsersOnly: 1
  userDetectionOrder: 0
  ignoreInferredJoints: 0
  ignoreZCoordinates: 0
  lateUpdateAvatars: 0
  skipRemoteAvatars: 0
  smoothing: 1
  useBoneOrientationConstraints: 0
  estimateJointVelocities: 0
  velocitySmoothing: 2
  allowTurnArounds: 0
  allowedHandRotations: 1
  waitTimeBeforeRemove: 1
  avatarControllers: []
  playerCalibrationPose: 0
  playerCommonGestures: 
  minTimeBetweenGestures: 0.7
  gestureManager: {fileID: 0}
  gestureListeners: []
  calibrationText: {fileID: 0}
  gesturesDebugText: {fileID: 0}
--- !u!4 &379480524
Transform:
  m_ObjectHideFlags: 0
  m_PrefabParentObject: {fileID: 0}
  m_PrefabInternal: {fileID: 0}
  m_GameObject: {fileID: 379480521}
  m_LocalRotation: {x: 0, y: 0, z: 0, w: 1}
  m_LocalPosition: {x: 0, y: 0, z: 0}
  m_LocalScale: {x: 1, y: 1, z: 1}
  m_Children: []
  m_Father: {fileID: 0}
  m_RootOrder: 6
  m_LocalEulerAnglesHint: {x: 0, y: 0, z: 0}
--- !u!114 &379480525
MonoBehaviour:
  m_ObjectHideFlags: 0
  m_PrefabParentObject: {fileID: 0}
  m_PrefabInternal: {fileID: 0}
  m_GameObject: {fileID: 379480521}
  m_Enabled: 1
  m_EditorHideFlags: 0
  m_Script: {fileID: 11500000, guid: bf738b9a4b447e644b0de4c1b34f9060, type: 3}
  m_Name: 
  m_EditorClassIdentifier: 
  backgroundImage: {fileID: 225904548}
  foregroundCamera: {fileID: 196037494}
  adjustedCameraOffset: 0
--- !u!1 &416485003
GameObject:
  m_ObjectHideFlags: 0
  m_PrefabParentObject: {fileID: 100004, guid: d16cb16092db9e34f865d30820b9a72f, type: 3}
  m_PrefabInternal: {fileID: 1411121059}
  serializedVersion: 5
  m_Component:
  - component: {fileID: 416485004}
  m_Layer: 0
  m_Name: Camera
  m_TagString: Untagged
  m_Icon: {fileID: 0}
  m_NavMeshLayer: 0
  m_StaticEditorFlags: 0
  m_IsActive: 1
--- !u!4 &416485004
Transform:
  m_ObjectHideFlags: 0
  m_PrefabParentObject: {fileID: 400004, guid: d16cb16092db9e34f865d30820b9a72f, type: 3}
  m_PrefabInternal: {fileID: 1411121059}
  m_GameObject: {fileID: 416485003}
  m_LocalRotation: {x: -2.5114633e-15, y: -0.7071067, z: -2.5114629e-15, w: 0.7071068}
  m_LocalPosition: {x: 0.03481819, y: 0.6190302, z: 1.8403797}
  m_LocalScale: {x: 1, y: 0.99999994, z: 0.9999999}
  m_Children: []
  m_Father: {fileID: 39681012}
  m_RootOrder: 1
  m_LocalEulerAnglesHint: {x: 0, y: 0, z: 0}
--- !u!1 &418616397
GameObject:
  m_ObjectHideFlags: 0
  m_PrefabParentObject: {fileID: 100006, guid: d16cb16092db9e34f865d30820b9a72f, type: 3}
  m_PrefabInternal: {fileID: 1411121059}
  serializedVersion: 5
  m_Component:
  - component: {fileID: 418616398}
  m_Layer: 0
  m_Name: Empty
  m_TagString: Untagged
  m_Icon: {fileID: 0}
  m_NavMeshLayer: 0
  m_StaticEditorFlags: 0
  m_IsActive: 1
--- !u!4 &418616398
Transform:
  m_ObjectHideFlags: 0
  m_PrefabParentObject: {fileID: 400006, guid: d16cb16092db9e34f865d30820b9a72f, type: 3}
  m_PrefabInternal: {fileID: 1411121059}
  m_GameObject: {fileID: 418616397}
  m_LocalRotation: {x: -0.7071068, y: 0, z: -0, w: 0.7071068}
  m_LocalPosition: {x: 0.74987465, y: 0.46912938, z: 0.21815585}
  m_LocalScale: {x: 1, y: 1, z: 1}
  m_Children: []
  m_Father: {fileID: 39681012}
  m_RootOrder: 2
  m_LocalEulerAnglesHint: {x: 0, y: 0, z: 0}
--- !u!4 &469506415
Transform:
  m_ObjectHideFlags: 0
  m_PrefabParentObject: {fileID: 400020, guid: d16cb16092db9e34f865d30820b9a72f, type: 3}
  m_PrefabInternal: {fileID: 1411121059}
  m_GameObject: {fileID: 2108662257}
  m_LocalRotation: {x: -0.07419576, y: 0.607764, z: 0.12034842, w: -0.78143084}
  m_LocalPosition: {x: -0.18298289, y: 0.000000013783574, z: -0.000000003585592}
  m_LocalScale: {x: 0.9999999, y: 0.9999998, z: 1}
  m_Children: []
  m_Father: {fileID: 216609041}
  m_RootOrder: 3
  m_LocalEulerAnglesHint: {x: 0, y: 0, z: 0}
--- !u!1 &644230341
GameObject:
  m_ObjectHideFlags: 0
  m_PrefabParentObject: {fileID: 0}
  m_PrefabInternal: {fileID: 0}
  serializedVersion: 5
  m_Component:
  - component: {fileID: 644230343}
  - component: {fileID: 644230342}
  m_Layer: 0
  m_Name: DebugInfo
  m_TagString: Untagged
  m_Icon: {fileID: 0}
  m_NavMeshLayer: 0
  m_StaticEditorFlags: 0
  m_IsActive: 1
--- !u!132 &644230342
GUIText:
  m_ObjectHideFlags: 0
  m_PrefabParentObject: {fileID: 0}
  m_PrefabInternal: {fileID: 0}
  m_GameObject: {fileID: 644230341}
  m_Enabled: 1
  serializedVersion: 3
  m_Text: 
  m_Anchor: 0
  m_Alignment: 0
  m_PixelOffset: {x: 0, y: 0}
  m_LineSpacing: 1
  m_TabSize: 4
  m_Font: {fileID: 10102, guid: 0000000000000000e000000000000000, type: 0}
  m_Material: {fileID: 0}
  m_FontSize: 20
  m_FontStyle: 0
  m_Color:
    serializedVersion: 2
    rgba: 4294967295
  m_PixelCorrect: 1
  m_RichText: 1
--- !u!4 &644230343
Transform:
  m_ObjectHideFlags: 0
  m_PrefabParentObject: {fileID: 0}
  m_PrefabInternal: {fileID: 0}
  m_GameObject: {fileID: 644230341}
  m_LocalRotation: {x: 0, y: 0, z: 0, w: 1}
  m_LocalPosition: {x: 0, y: 1, z: 0}
  m_LocalScale: {x: 1, y: 1, z: 1}
  m_Children: []
  m_Father: {fileID: 0}
  m_RootOrder: 3
  m_LocalEulerAnglesHint: {x: 0, y: 0, z: 0}
--- !u!1 &795478995
GameObject:
  m_ObjectHideFlags: 0
  m_PrefabParentObject: {fileID: 0}
  m_PrefabInternal: {fileID: 0}
  serializedVersion: 5
  m_Component:
  - component: {fileID: 795478997}
  - component: {fileID: 795478996}
  m_Layer: 0
  m_Name: Directional light
  m_TagString: Untagged
  m_Icon: {fileID: 0}
  m_NavMeshLayer: 0
  m_StaticEditorFlags: 0
  m_IsActive: 1
--- !u!108 &795478996
Light:
  m_ObjectHideFlags: 0
  m_PrefabParentObject: {fileID: 0}
  m_PrefabInternal: {fileID: 0}
  m_GameObject: {fileID: 795478995}
  m_Enabled: 1
  serializedVersion: 8
  m_Type: 1
  m_Color: {r: 1, g: 1, b: 1, a: 1}
  m_Intensity: 1
  m_Range: 10
  m_SpotAngle: 30
  m_CookieSize: 10
  m_Shadows:
    m_Type: 0
    m_Resolution: -1
    m_CustomResolution: -1
    m_Strength: 1
    m_Bias: 0.05
    m_NormalBias: 0.4
    m_NearPlane: 0.2
  m_Cookie: {fileID: 0}
  m_DrawHalo: 0
  m_Flare: {fileID: 0}
  m_RenderMode: 0
  m_CullingMask:
    serializedVersion: 2
    m_Bits: 4294967295
  m_Lightmapping: 1
  m_AreaSize: {x: 1, y: 1}
  m_BounceIntensity: 1
  m_ColorTemperature: 6570
  m_UseColorTemperature: 0
  m_ShadowRadius: 0
  m_ShadowAngle: 0
--- !u!4 &795478997
Transform:
  m_ObjectHideFlags: 0
  m_PrefabParentObject: {fileID: 0}
  m_PrefabInternal: {fileID: 0}
  m_GameObject: {fileID: 795478995}
  m_LocalRotation: {x: 0.03664371, y: 0, z: 0, w: 0.99932843}
  m_LocalPosition: {x: -0.3089588, y: 1.6166517, z: -0.13755423}
  m_LocalScale: {x: 1, y: 1, z: 1}
  m_Children: []
  m_Father: {fileID: 0}
  m_RootOrder: 4
  m_LocalEulerAnglesHint: {x: 0, y: 0, z: 0}
--- !u!1 &1052780219
GameObject:
  m_ObjectHideFlags: 0
  m_PrefabParentObject: {fileID: 100028, guid: d16cb16092db9e34f865d30820b9a72f, type: 3}
  m_PrefabInternal: {fileID: 1411121059}
  serializedVersion: 5
  m_Component:
  - component: {fileID: 154168210}
  m_Layer: 0
  m_Name: right_eyebrow
  m_TagString: Untagged
  m_Icon: {fileID: 0}
  m_NavMeshLayer: 0
  m_StaticEditorFlags: 0
  m_IsActive: 1
--- !u!1 &1113961208
GameObject:
  m_ObjectHideFlags: 0
  m_PrefabParentObject: {fileID: 100030, guid: d16cb16092db9e34f865d30820b9a72f, type: 3}
  m_PrefabInternal: {fileID: 1411121059}
  serializedVersion: 5
  m_Component:
  - component: {fileID: 1273855617}
  m_Layer: 0
  m_Name: right_lip
  m_TagString: Untagged
  m_Icon: {fileID: 0}
  m_NavMeshLayer: 0
  m_StaticEditorFlags: 0
  m_IsActive: 1
--- !u!1 &1127319239
GameObject:
  m_ObjectHideFlags: 0
  m_PrefabParentObject: {fileID: 100008, guid: d16cb16092db9e34f865d30820b9a72f, type: 3}
  m_PrefabInternal: {fileID: 1411121059}
  serializedVersion: 5
  m_Component:
  - component: {fileID: 1127319240}
  m_Layer: 0
  m_Name: forehead
  m_TagString: Untagged
  m_Icon: {fileID: 0}
  m_NavMeshLayer: 0
  m_StaticEditorFlags: 0
  m_IsActive: 1
--- !u!4 &1127319240
Transform:
  m_ObjectHideFlags: 0
  m_PrefabParentObject: {fileID: 400008, guid: d16cb16092db9e34f865d30820b9a72f, type: 3}
  m_PrefabInternal: {fileID: 1411121059}
  m_GameObject: {fileID: 1127319239}
  m_LocalRotation: {x: -0.029485999, y: 0.0009880736, z: -0.002535087, w: 0.9995615}
  m_LocalPosition: {x: -0.4878823, y: -0.0008585585, z: 0.006200088}
  m_LocalScale: {x: 1, y: 0.9999998, z: 1}
  m_Children: []
  m_Father: {fileID: 216609041}
  m_RootOrder: 0
  m_LocalEulerAnglesHint: {x: 0, y: 0, z: 0}
--- !u!1 &1152793766
GameObject:
  m_ObjectHideFlags: 0
  m_PrefabParentObject: {fileID: 0}
  m_PrefabInternal: {fileID: 0}
  serializedVersion: 5
  m_Component:
  - component: {fileID: 1152793771}
  - component: {fileID: 1152793770}
  - component: {fileID: 1152793769}
  - component: {fileID: 1152793768}
  - component: {fileID: 1152793767}
  m_Layer: 0
  m_Name: BackgroundCamera
  m_TagString: Untagged
  m_Icon: {fileID: 0}
  m_NavMeshLayer: 0
  m_StaticEditorFlags: 0
  m_IsActive: 1
--- !u!81 &1152793767
AudioListener:
  m_ObjectHideFlags: 0
  m_PrefabParentObject: {fileID: 0}
  m_PrefabInternal: {fileID: 0}
  m_GameObject: {fileID: 1152793766}
  m_Enabled: 0
--- !u!92 &1152793768
Behaviour:
  m_ObjectHideFlags: 0
  m_PrefabParentObject: {fileID: 0}
  m_PrefabInternal: {fileID: 0}
  m_GameObject: {fileID: 1152793766}
  m_Enabled: 1
--- !u!124 &1152793769
Behaviour:
  m_ObjectHideFlags: 0
  m_PrefabParentObject: {fileID: 0}
  m_PrefabInternal: {fileID: 0}
  m_GameObject: {fileID: 1152793766}
  m_Enabled: 0
--- !u!20 &1152793770
Camera:
  m_ObjectHideFlags: 0
  m_PrefabParentObject: {fileID: 0}
  m_PrefabInternal: {fileID: 0}
  m_GameObject: {fileID: 1152793766}
  m_Enabled: 1
  serializedVersion: 2
  m_ClearFlags: 2
  m_BackGroundColor: {r: 0.19215687, g: 0.3019608, b: 0.4745098, a: 0.019607844}
  m_NormalizedViewPortRect:
    serializedVersion: 2
    x: 0
    y: 0
    width: 1
    height: 1
  near clip plane: 0.3
  far clip plane: 1000
  field of view: 60
  orthographic: 0
  orthographic size: 5
  m_Depth: -1
  m_CullingMask:
    serializedVersion: 2
    m_Bits: 256
  m_RenderingPath: -1
  m_TargetTexture: {fileID: 0}
  m_TargetDisplay: 0
  m_TargetEye: 3
  m_HDR: 0
  m_AllowMSAA: 1
  m_ForceIntoRT: 0
  m_OcclusionCulling: 1
  m_StereoConvergence: 10
  m_StereoSeparation: 0.022
  m_StereoMirrorMode: 0
--- !u!4 &1152793771
Transform:
  m_ObjectHideFlags: 0
  m_PrefabParentObject: {fileID: 0}
  m_PrefabInternal: {fileID: 0}
  m_GameObject: {fileID: 1152793766}
  m_LocalRotation: {x: 0, y: 0, z: 0, w: 1}
  m_LocalPosition: {x: 0, y: 1, z: 0}
  m_LocalScale: {x: 1, y: 1, z: 1}
  m_Children: []
  m_Father: {fileID: 0}
  m_RootOrder: 1
  m_LocalEulerAnglesHint: {x: 0, y: 0, z: 0}
--- !u!1 &1208599257
GameObject:
  m_ObjectHideFlags: 0
  m_PrefabParentObject: {fileID: 100018, guid: d16cb16092db9e34f865d30820b9a72f, type: 3}
  m_PrefabInternal: {fileID: 1411121059}
  serializedVersion: 5
  m_Component:
  - component: {fileID: 2052867795}
  m_Layer: 0
  m_Name: left_eyebrow
  m_TagString: Untagged
  m_Icon: {fileID: 0}
  m_NavMeshLayer: 0
  m_StaticEditorFlags: 0
  m_IsActive: 1
--- !u!1 &1208729229
GameObject:
  m_ObjectHideFlags: 0
  m_PrefabParentObject: {fileID: 100002, guid: d16cb16092db9e34f865d30820b9a72f, type: 3}
  m_PrefabInternal: {fileID: 1411121059}
  serializedVersion: 5
  m_Component:
  - component: {fileID: 1208729230}
  - component: {fileID: 1208729231}
  m_Layer: 0
  m_Name: Face
  m_TagString: Untagged
  m_Icon: {fileID: 0}
  m_NavMeshLayer: 0
  m_StaticEditorFlags: 0
  m_IsActive: 1
--- !u!4 &1208729230
Transform:
  m_ObjectHideFlags: 0
  m_PrefabParentObject: {fileID: 400002, guid: d16cb16092db9e34f865d30820b9a72f, type: 3}
  m_PrefabInternal: {fileID: 1411121059}
  m_GameObject: {fileID: 1208729229}
  m_LocalRotation: {x: 0.7071068, y: 0.0000000071092083, z: -8.938147e-16, w: 0.7071067}
  m_LocalPosition: {x: -0.04433417, y: -0.08105756, z: 0.35401422}
  m_LocalScale: {x: 2, y: 2, z: 2}
  m_Children: []
  m_Father: {fileID: 1606533086}
  m_RootOrder: 0
  m_LocalEulerAnglesHint: {x: 0, y: 0, z: 0}
--- !u!137 &1208729231
SkinnedMeshRenderer:
  m_ObjectHideFlags: 0
  m_PrefabParentObject: {fileID: 13700000, guid: d16cb16092db9e34f865d30820b9a72f,
    type: 3}
  m_PrefabInternal: {fileID: 1411121059}
  m_GameObject: {fileID: 1208729229}
  m_Enabled: 1
  m_CastShadows: 1
  m_ReceiveShadows: 1
  m_MotionVectors: 1
  m_LightProbeUsage: 1
  m_ReflectionProbeUsage: 1
  m_Materials:
  - {fileID: 2100000, guid: 7c19b23af3ebef44990b2bae230af1aa, type: 2}
  m_StaticBatchInfo:
    firstSubMesh: 0
    subMeshCount: 0
  m_StaticBatchRoot: {fileID: 0}
  m_ProbeAnchor: {fileID: 0}
  m_LightProbeVolumeOverride: {fileID: 0}
  m_ScaleInLightmap: 1
  m_PreserveUVs: 0
  m_IgnoreNormalsForChartDetection: 0
  m_ImportantGI: 0
  m_SelectedEditorRenderState: 3
  m_MinimumChartSize: 4
  m_AutoUVMaxDistance: 0.5
  m_AutoUVMaxAngle: 89
  m_LightmapParameters: {fileID: 0}
  m_SortingLayerID: 0
  m_SortingLayer: 0
  m_SortingOrder: 0
  serializedVersion: 2
  m_Quality: 0
  m_UpdateWhenOffscreen: 0
  m_SkinnedMotionVectors: 1
  m_Mesh: {fileID: 4300000, guid: d16cb16092db9e34f865d30820b9a72f, type: 3}
  m_Bones:
  - {fileID: 1947688986}
  - {fileID: 1402984696}
  - {fileID: 216609041}
  - {fileID: 2052867795}
  - {fileID: 154168210}
  - {fileID: 1127319240}
  - {fileID: 79087020}
  - {fileID: 291302503}
  - {fileID: 469506415}
  - {fileID: 1273855617}
  m_BlendShapeWeights: []
  m_RootBone: {fileID: 1947688986}
  m_AABB:
    m_Center: {x: -0.41378206, y: -0.02209866, z: 0.1258393}
    m_Extent: {x: 0.4493063, y: 0.3731251, z: 0.3625249}
  m_DirtyAABB: 0
--- !u!4 &1273855617
Transform:
  m_ObjectHideFlags: 0
  m_PrefabParentObject: {fileID: 400030, guid: d16cb16092db9e34f865d30820b9a72f, type: 3}
  m_PrefabInternal: {fileID: 1411121059}
  m_GameObject: {fileID: 1113961208}
  m_LocalRotation: {x: -0.12942569, y: -0.595413, z: 0.15359156, w: 0.7779088}
  m_LocalPosition: {x: -0.18298289, y: 0.000000013783574, z: -0.000000003585592}
  m_LocalScale: {x: 1, y: 1, z: 0.9999998}
  m_Children: []
  m_Father: {fileID: 216609041}
  m_RootOrder: 6
  m_LocalEulerAnglesHint: {x: 0, y: 0, z: 0}
--- !u!4 &1402984696
Transform:
  m_ObjectHideFlags: 0
  m_PrefabParentObject: {fileID: 400010, guid: d16cb16092db9e34f865d30820b9a72f, type: 3}
  m_PrefabInternal: {fileID: 1411121059}
  m_GameObject: {fileID: 130114209}
  m_LocalRotation: {x: 0.72551197, y: 0.015717404, z: -0.6879432, w: 0.010929675}
  m_LocalPosition: {x: -0.10007419, y: 0.0000000070780515, z: 5e-16}
  m_LocalScale: {x: 0.9999999, y: 1.0000001, z: 1.0000002}
  m_Children: []
  m_Father: {fileID: 1947688986}
  m_RootOrder: 0
  m_LocalEulerAnglesHint: {x: 0, y: 0, z: 0}
--- !u!1001 &1411121059
Prefab:
  m_ObjectHideFlags: 0
  serializedVersion: 2
  m_Modification:
    m_TransformParent: {fileID: 0}
    m_Modifications:
    - target: {fileID: 400022, guid: d16cb16092db9e34f865d30820b9a72f, type: 3}
      propertyPath: m_LocalPosition.x
      value: 0
      objectReference: {fileID: 0}
    - target: {fileID: 400022, guid: d16cb16092db9e34f865d30820b9a72f, type: 3}
      propertyPath: m_LocalPosition.y
      value: 1
      objectReference: {fileID: 0}
    - target: {fileID: 400022, guid: d16cb16092db9e34f865d30820b9a72f, type: 3}
      propertyPath: m_LocalPosition.z
      value: 2
      objectReference: {fileID: 0}
    - target: {fileID: 400022, guid: d16cb16092db9e34f865d30820b9a72f, type: 3}
      propertyPath: m_LocalRotation.x
      value: 0
      objectReference: {fileID: 0}
    - target: {fileID: 400022, guid: d16cb16092db9e34f865d30820b9a72f, type: 3}
      propertyPath: m_LocalRotation.y
      value: 1
      objectReference: {fileID: 0}
    - target: {fileID: 400022, guid: d16cb16092db9e34f865d30820b9a72f, type: 3}
      propertyPath: m_LocalRotation.z
      value: 0
      objectReference: {fileID: 0}
    - target: {fileID: 400022, guid: d16cb16092db9e34f865d30820b9a72f, type: 3}
      propertyPath: m_LocalRotation.w
      value: -4.37113883e-08
      objectReference: {fileID: 0}
    - target: {fileID: 100002, guid: d16cb16092db9e34f865d30820b9a72f, type: 3}
      propertyPath: m_Name
      value: Face
      objectReference: {fileID: 0}
    - target: {fileID: 400010, guid: d16cb16092db9e34f865d30820b9a72f, type: 3}
      propertyPath: m_LocalRotation.x
      value: .725511968
      objectReference: {fileID: 0}
    - target: {fileID: 400010, guid: d16cb16092db9e34f865d30820b9a72f, type: 3}
      propertyPath: m_LocalRotation.y
      value: .015717404
      objectReference: {fileID: 0}
    - target: {fileID: 400010, guid: d16cb16092db9e34f865d30820b9a72f, type: 3}
      propertyPath: m_LocalRotation.z
      value: -.68794322
      objectReference: {fileID: 0}
    - target: {fileID: 400010, guid: d16cb16092db9e34f865d30820b9a72f, type: 3}
      propertyPath: m_LocalRotation.w
      value: .0109296748
      objectReference: {fileID: 0}
    - target: {fileID: 400010, guid: d16cb16092db9e34f865d30820b9a72f, type: 3}
      propertyPath: m_LocalPosition.x
      value: -.100074187
      objectReference: {fileID: 0}
    - target: {fileID: 400010, guid: d16cb16092db9e34f865d30820b9a72f, type: 3}
      propertyPath: m_LocalPosition.y
      value: 7.07805148e-09
      objectReference: {fileID: 0}
    - target: {fileID: 400010, guid: d16cb16092db9e34f865d30820b9a72f, type: 3}
      propertyPath: m_LocalPosition.z
      value: 5.00000002e-16
      objectReference: {fileID: 0}
    - target: {fileID: 400024, guid: d16cb16092db9e34f865d30820b9a72f, type: 3}
      propertyPath: m_LocalRotation.x
      value: .990720868
      objectReference: {fileID: 0}
    - target: {fileID: 400024, guid: d16cb16092db9e34f865d30820b9a72f, type: 3}
      propertyPath: m_LocalRotation.y
      value: .0126917139
      objectReference: {fileID: 0}
    - target: {fileID: 400024, guid: d16cb16092db9e34f865d30820b9a72f, type: 3}
      propertyPath: m_LocalRotation.z
      value: -.132728696
      objectReference: {fileID: 0}
    - target: {fileID: 400024, guid: d16cb16092db9e34f865d30820b9a72f, type: 3}
      propertyPath: m_LocalRotation.w
      value: -.026347192
      objectReference: {fileID: 0}
    - target: {fileID: 400024, guid: d16cb16092db9e34f865d30820b9a72f, type: 3}
      propertyPath: m_LocalPosition.x
      value: -.100074187
      objectReference: {fileID: 0}
    - target: {fileID: 400024, guid: d16cb16092db9e34f865d30820b9a72f, type: 3}
      propertyPath: m_LocalPosition.y
      value: 7.07805148e-09
      objectReference: {fileID: 0}
    - target: {fileID: 400024, guid: d16cb16092db9e34f865d30820b9a72f, type: 3}
      propertyPath: m_LocalPosition.z
      value: 5.00000002e-16
      objectReference: {fileID: 0}
    - target: {fileID: 100022, guid: d16cb16092db9e34f865d30820b9a72f, type: 3}
      propertyPath: m_Name
      value: FaceRigged
      objectReference: {fileID: 0}
    - target: {fileID: 400018, guid: d16cb16092db9e34f865d30820b9a72f, type: 3}
      propertyPath: m_LocalPosition.x
      value: -.487882286
      objectReference: {fileID: 0}
    - target: {fileID: 400018, guid: d16cb16092db9e34f865d30820b9a72f, type: 3}
      propertyPath: m_LocalPosition.y
      value: -.000858558749
      objectReference: {fileID: 0}
    - target: {fileID: 400018, guid: d16cb16092db9e34f865d30820b9a72f, type: 3}
      propertyPath: m_LocalPosition.z
      value: .00620007655
      objectReference: {fileID: 0}
    - target: {fileID: 400018, guid: d16cb16092db9e34f865d30820b9a72f, type: 3}
      propertyPath: m_LocalRotation.x
      value: .16555728
      objectReference: {fileID: 0}
    - target: {fileID: 400018, guid: d16cb16092db9e34f865d30820b9a72f, type: 3}
      propertyPath: m_LocalRotation.y
      value: -.601871073
      objectReference: {fileID: 0}
    - target: {fileID: 400018, guid: d16cb16092db9e34f865d30820b9a72f, type: 3}
      propertyPath: m_LocalRotation.z
      value: -.221011564
      objectReference: {fileID: 0}
    - target: {fileID: 400018, guid: d16cb16092db9e34f865d30820b9a72f, type: 3}
      propertyPath: m_LocalRotation.w
      value: .749330282
      objectReference: {fileID: 0}
    - target: {fileID: 400020, guid: d16cb16092db9e34f865d30820b9a72f, type: 3}
      propertyPath: m_LocalRotation.x
      value: -.0741957575
      objectReference: {fileID: 0}
    - target: {fileID: 400020, guid: d16cb16092db9e34f865d30820b9a72f, type: 3}
      propertyPath: m_LocalRotation.y
      value: .607764006
      objectReference: {fileID: 0}
    - target: {fileID: 400020, guid: d16cb16092db9e34f865d30820b9a72f, type: 3}
      propertyPath: m_LocalRotation.z
      value: .120348424
      objectReference: {fileID: 0}
    - target: {fileID: 400020, guid: d16cb16092db9e34f865d30820b9a72f, type: 3}
      propertyPath: m_LocalRotation.w
      value: -.78143084
      objectReference: {fileID: 0}
    - target: {fileID: 400020, guid: d16cb16092db9e34f865d30820b9a72f, type: 3}
      propertyPath: m_LocalPosition.x
      value: -.182982892
      objectReference: {fileID: 0}
    - target: {fileID: 400020, guid: d16cb16092db9e34f865d30820b9a72f, type: 3}
      propertyPath: m_LocalPosition.y
      value: 1.37835743e-08
      objectReference: {fileID: 0}
    - target: {fileID: 400020, guid: d16cb16092db9e34f865d30820b9a72f, type: 3}
      propertyPath: m_LocalPosition.z
      value: -3.58559205e-09
      objectReference: {fileID: 0}
    - target: {fileID: 400030, guid: d16cb16092db9e34f865d30820b9a72f, type: 3}
      propertyPath: m_LocalRotation.x
      value: -.129425675
      objectReference: {fileID: 0}
    - target: {fileID: 400030, guid: d16cb16092db9e34f865d30820b9a72f, type: 3}
      propertyPath: m_LocalRotation.y
      value: -.59541297
      objectReference: {fileID: 0}
    - target: {fileID: 400030, guid: d16cb16092db9e34f865d30820b9a72f, type: 3}
      propertyPath: m_LocalRotation.z
      value: .153591543
      objectReference: {fileID: 0}
    - target: {fileID: 400030, guid: d16cb16092db9e34f865d30820b9a72f, type: 3}
      propertyPath: m_LocalRotation.w
      value: .777908742
      objectReference: {fileID: 0}
    - target: {fileID: 400030, guid: d16cb16092db9e34f865d30820b9a72f, type: 3}
      propertyPath: m_LocalPosition.x
      value: -.182982892
      objectReference: {fileID: 0}
    - target: {fileID: 400030, guid: d16cb16092db9e34f865d30820b9a72f, type: 3}
      propertyPath: m_LocalPosition.y
      value: 1.37835743e-08
      objectReference: {fileID: 0}
    - target: {fileID: 400030, guid: d16cb16092db9e34f865d30820b9a72f, type: 3}
      propertyPath: m_LocalPosition.z
      value: -3.58559205e-09
      objectReference: {fileID: 0}
    - target: {fileID: 400028, guid: d16cb16092db9e34f865d30820b9a72f, type: 3}
      propertyPath: m_LocalRotation.x
      value: -.224508509
      objectReference: {fileID: 0}
    - target: {fileID: 400028, guid: d16cb16092db9e34f865d30820b9a72f, type: 3}
      propertyPath: m_LocalRotation.y
      value: -.587152958
      objectReference: {fileID: 0}
    - target: {fileID: 400028, guid: d16cb16092db9e34f865d30820b9a72f, type: 3}
      propertyPath: m_LocalRotation.z
      value: .254268467
      objectReference: {fileID: 0}
    - target: {fileID: 400028, guid: d16cb16092db9e34f865d30820b9a72f, type: 3}
      propertyPath: m_LocalRotation.w
      value: .73497951
      objectReference: {fileID: 0}
    - target: {fileID: 400028, guid: d16cb16092db9e34f865d30820b9a72f, type: 3}
      propertyPath: m_LocalPosition.x
      value: -.487882346
      objectReference: {fileID: 0}
    - target: {fileID: 400028, guid: d16cb16092db9e34f865d30820b9a72f, type: 3}
      propertyPath: m_LocalPosition.y
      value: -.000858560496
      objectReference: {fileID: 0}
    - target: {fileID: 400028, guid: d16cb16092db9e34f865d30820b9a72f, type: 3}
      propertyPath: m_LocalPosition.z
      value: .00620009098
      objectReference: {fileID: 0}
    - target: {fileID: 100024, guid: d16cb16092db9e34f865d30820b9a72f, type: 3}
      propertyPath: m_StaticEditorFlags
      value: 0
      objectReference: {fileID: 0}
    - target: {fileID: 100022, guid: d16cb16092db9e34f865d30820b9a72f, type: 3}
      propertyPath: m_IsActive
      value: 1
      objectReference: {fileID: 0}
    - target: {fileID: 400022, guid: d16cb16092db9e34f865d30820b9a72f, type: 3}
      propertyPath: m_RootOrder
      value: 2
      objectReference: {fileID: 0}
    - target: {fileID: 400002, guid: d16cb16092db9e34f865d30820b9a72f, type: 3}
      propertyPath: m_LocalScale.x
      value: 2
      objectReference: {fileID: 0}
    - target: {fileID: 400002, guid: d16cb16092db9e34f865d30820b9a72f, type: 3}
      propertyPath: m_LocalScale.y
      value: 2
      objectReference: {fileID: 0}
    - target: {fileID: 400002, guid: d16cb16092db9e34f865d30820b9a72f, type: 3}
      propertyPath: m_LocalScale.z
      value: 2
      objectReference: {fileID: 0}
    - target: {fileID: 400000, guid: d16cb16092db9e34f865d30820b9a72f, type: 3}
      propertyPath: m_LocalPosition.x
      value: 0
      objectReference: {fileID: 0}
    - target: {fileID: 400000, guid: d16cb16092db9e34f865d30820b9a72f, type: 3}
      propertyPath: m_LocalPosition.y
      value: 0
      objectReference: {fileID: 0}
    - target: {fileID: 400000, guid: d16cb16092db9e34f865d30820b9a72f, type: 3}
      propertyPath: m_LocalPosition.z
      value: 0
      objectReference: {fileID: 0}
    - target: {fileID: 400022, guid: d16cb16092db9e34f865d30820b9a72f, type: 3}
      propertyPath: m_LocalScale.x
      value: 1
      objectReference: {fileID: 0}
    - target: {fileID: 400022, guid: d16cb16092db9e34f865d30820b9a72f, type: 3}
      propertyPath: m_LocalScale.y
      value: 1
      objectReference: {fileID: 0}
    - target: {fileID: 400022, guid: d16cb16092db9e34f865d30820b9a72f, type: 3}
      propertyPath: m_LocalScale.z
      value: 1
      objectReference: {fileID: 0}
    - target: {fileID: 400032, guid: d16cb16092db9e34f865d30820b9a72f, type: 3}
      propertyPath: m_LocalRotation.x
      value: .5
      objectReference: {fileID: 0}
    - target: {fileID: 400032, guid: d16cb16092db9e34f865d30820b9a72f, type: 3}
      propertyPath: m_LocalRotation.y
      value: .5
      objectReference: {fileID: 0}
    - target: {fileID: 400032, guid: d16cb16092db9e34f865d30820b9a72f, type: 3}
      propertyPath: m_LocalRotation.z
      value: -.5
      objectReference: {fileID: 0}
    - target: {fileID: 400032, guid: d16cb16092db9e34f865d30820b9a72f, type: 3}
      propertyPath: m_LocalRotation.w
      value: .5
      objectReference: {fileID: 0}
    - target: {fileID: 400032, guid: d16cb16092db9e34f865d30820b9a72f, type: 3}
      propertyPath: m_LocalScale.y
      value: 1
      objectReference: {fileID: 0}
    - target: {fileID: 400000, guid: d16cb16092db9e34f865d30820b9a72f, type: 3}
      propertyPath: m_LocalRotation.x
      value: .57357645
      objectReference: {fileID: 0}
    - target: {fileID: 400000, guid: d16cb16092db9e34f865d30820b9a72f, type: 3}
      propertyPath: m_LocalRotation.z
      value: 0
      objectReference: {fileID: 0}
    - target: {fileID: 400000, guid: d16cb16092db9e34f865d30820b9a72f, type: 3}
      propertyPath: m_LocalRotation.w
      value: -.819152057
      objectReference: {fileID: 0}
    m_RemovedComponents:
    - {fileID: 9500000, guid: d16cb16092db9e34f865d30820b9a72f, type: 3}
  m_ParentPrefab: {fileID: 100100000, guid: d16cb16092db9e34f865d30820b9a72f, type: 3}
  m_RootGameObject: {fileID: 39681011}
  m_IsPrefabParent: 0
--- !u!1 &1606533085
GameObject:
  m_ObjectHideFlags: 0
  m_PrefabParentObject: {fileID: 100000, guid: d16cb16092db9e34f865d30820b9a72f, type: 3}
  m_PrefabInternal: {fileID: 1411121059}
  serializedVersion: 5
  m_Component:
  - component: {fileID: 1606533086}
  m_Layer: 0
  m_Name: Armature
  m_TagString: Untagged
  m_Icon: {fileID: 0}
  m_NavMeshLayer: 0
  m_StaticEditorFlags: 0
  m_IsActive: 1
--- !u!4 &1606533086
Transform:
  m_ObjectHideFlags: 0
  m_PrefabParentObject: {fileID: 400000, guid: d16cb16092db9e34f865d30820b9a72f, type: 3}
  m_PrefabInternal: {fileID: 1411121059}
  m_GameObject: {fileID: 1606533085}
  m_LocalRotation: {x: 0.57357645, y: 0, z: 0, w: -0.81915206}
  m_LocalPosition: {x: 0, y: 0, z: 0}
  m_LocalScale: {x: 1, y: 1, z: 1}
  m_Children:
  - {fileID: 1208729230}
  - {fileID: 1947688986}
  m_Father: {fileID: 39681012}
  m_RootOrder: 0
  m_LocalEulerAnglesHint: {x: 0, y: 0, z: 0}
--- !u!1 &1947688985
GameObject:
  m_ObjectHideFlags: 0
  m_PrefabParentObject: {fileID: 100032, guid: d16cb16092db9e34f865d30820b9a72f, type: 3}
  m_PrefabInternal: {fileID: 1411121059}
  serializedVersion: 5
  m_Component:
  - component: {fileID: 1947688986}
  m_Layer: 0
  m_Name: spine
  m_TagString: Untagged
  m_Icon: {fileID: 0}
  m_NavMeshLayer: 0
  m_StaticEditorFlags: 0
  m_IsActive: 1
--- !u!4 &1947688986
Transform:
  m_ObjectHideFlags: 0
  m_PrefabParentObject: {fileID: 400032, guid: d16cb16092db9e34f865d30820b9a72f, type: 3}
  m_PrefabInternal: {fileID: 1411121059}
  m_GameObject: {fileID: 1947688985}
  m_LocalRotation: {x: 0.5, y: 0.5, z: -0.5, w: 0.5}
  m_LocalPosition: {x: -0, y: 0, z: 0}
  m_LocalScale: {x: 1, y: 1, z: 1}
  m_Children:
  - {fileID: 1402984696}
  - {fileID: 216609041}
  m_Father: {fileID: 1606533086}
  m_RootOrder: 1
  m_LocalEulerAnglesHint: {x: 0, y: 0, z: 0}
--- !u!1 &2012092986
GameObject:
  m_ObjectHideFlags: 0
  m_PrefabParentObject: {fileID: 100012, guid: d16cb16092db9e34f865d30820b9a72f, type: 3}
  m_PrefabInternal: {fileID: 1411121059}
  serializedVersion: 5
  m_Component:
  - component: {fileID: 2012092987}
  m_Layer: 0
  m_Name: Lamp
  m_TagString: Untagged
  m_Icon: {fileID: 0}
  m_NavMeshLayer: 0
  m_StaticEditorFlags: 0
  m_IsActive: 1
--- !u!4 &2012092987
Transform:
  m_ObjectHideFlags: 0
  m_PrefabParentObject: {fileID: 400012, guid: d16cb16092db9e34f865d30820b9a72f, type: 3}
  m_PrefabInternal: {fileID: 1411121059}
  m_GameObject: {fileID: 2012092986}
  m_LocalRotation: {x: 0.16907571, y: -0.75588036, z: 0.27217135, w: 0.5709475}
  m_LocalPosition: {x: -0.550975, y: 0.96186924, z: 1.0396012}
  m_LocalScale: {x: 1, y: 0.9999999, z: 1}
  m_Children: []
  m_Father: {fileID: 39681012}
  m_RootOrder: 3
  m_LocalEulerAnglesHint: {x: 0, y: 0, z: 0}
--- !u!4 &2052867795
Transform:
  m_ObjectHideFlags: 0
  m_PrefabParentObject: {fileID: 400018, guid: d16cb16092db9e34f865d30820b9a72f, type: 3}
  m_PrefabInternal: {fileID: 1411121059}
  m_GameObject: {fileID: 1208599257}
  m_LocalRotation: {x: 0.16555728, y: -0.6018711, z: -0.22101156, w: 0.7493303}
  m_LocalPosition: {x: -0.4878823, y: -0.00085855875, z: 0.0062000765}
  m_LocalScale: {x: 0.99977684, y: 0.9980545, z: 0.68585396}
  m_Children: []
  m_Father: {fileID: 216609041}
  m_RootOrder: 2
  m_LocalEulerAnglesHint: {x: 0, y: 0, z: 0}
--- !u!1 &2067180439
GameObject:
  m_ObjectHideFlags: 0
  m_PrefabParentObject: {fileID: 100014, guid: d16cb16092db9e34f865d30820b9a72f, type: 3}
  m_PrefabInternal: {fileID: 1411121059}
  serializedVersion: 5
  m_Component:
  - component: {fileID: 2067180440}
  m_Layer: 0
  m_Name: Lamp_001
  m_TagString: Untagged
  m_Icon: {fileID: 0}
  m_NavMeshLayer: 0
  m_StaticEditorFlags: 0
  m_IsActive: 1
--- !u!4 &2067180440
Transform:
  m_ObjectHideFlags: 0
  m_PrefabParentObject: {fileID: 400014, guid: d16cb16092db9e34f865d30820b9a72f, type: 3}
  m_PrefabInternal: {fileID: 1411121059}
  m_GameObject: {fileID: 2067180439}
  m_LocalRotation: {x: 0.16907571, y: -0.75588036, z: 0.27217135, w: 0.5709475}
  m_LocalPosition: {x: 0.56665295, y: 1.2023369, z: 1.0396011}
  m_LocalScale: {x: 1, y: 0.9999999, z: 1}
  m_Children: []
  m_Father: {fileID: 39681012}
  m_RootOrder: 4
  m_LocalEulerAnglesHint: {x: 0, y: 0, z: 0}
--- !u!1 &2108662257
GameObject:
  m_ObjectHideFlags: 0
  m_PrefabParentObject: {fileID: 100020, guid: d16cb16092db9e34f865d30820b9a72f, type: 3}
  m_PrefabInternal: {fileID: 1411121059}
  serializedVersion: 5
  m_Component:
  - component: {fileID: 469506415}
  m_Layer: 0
  m_Name: left_lip
  m_TagString: Untagged
  m_Icon: {fileID: 0}
  m_NavMeshLayer: 0
  m_StaticEditorFlags: 0
  m_IsActive: 1
